{
  "machine": {
    "blank": " ",
    "start state": "start",
    "final states": [
      "done"
    ],
    "table": {
      "start": {
        "0": {
          "L": "init"
        },
        "1": {
          "L": "init"
        }
      },
      "init": {
        " ": {
          "write": "+",
          "R": "right"
        }
      },
      "right": {
        "0": "R",
        "1": "R",
        "*": "R",
        " ": {
          "L": "readB"
        }
      },
      "readB": {
        "0": {
          "write": " ",
          "L": "doubleL"
        },
        "1": {
          "write": " ",
          "L": "addA"
        }
      },
      "addA": {
        "0": "L",
        "1": "L",
        "*": {
          "L": "read"
        }
      },
      "doubleL": {
        "0": "L",
        "1": "L",
        "*": {
          "write": "0",
          "R": "shift"
        }
      },
      "double": {
        "0": "R",
        "1": "R",
        "+": "R",
        "*": {
          "write": "0",
          "R": "shift"
        }
      },
      "shift": {
        "0": {
          "write": "*",
          "R": "shift0"
        },
        "1": {
          "write": "*",
          "R": "shift1"
        },
        " ": {
          "L": "tidy"
        }
      },
      "shift0": {
        "0": {
          "R": "shift0"
        },
        "1": {
          "write": "0",
          "R": "shift1"
        },
        " ": {
          "write": "0",
          "R": "right"
        }
      },
      "shift1": {
        "0": {
          "write": "1",
          "R": "shift0"
        },
        "1": {
          "R": "shift1"
        },
        " ": {
          "write": "1",
          "R": "right"
        }
      },
      "tidy": {
        "0": {
          "write": " ",
          "L": "tidy"
        },
        "1": {
          "write": " ",
          "L": "tidy"
        },
        "+": {
          "write": " ",
          "L": "done"
        }
      },
      "done": {},
      "read": {
        "0": {
          "write": "c",
          "L": "have0"
        },
        "1": {
          "write": "c",
          "L": "have1"
        },
        "+": {
          "L": "rewrite"
        }
      },
      "have0": {
        "0": "L",
        "1": "L",
        "+": {
          "L": "add0"
        }
      },
      "have1": {
        "0": "L",
        "1": "L",
        "+": {
          "L": "add1"
        }
      },
      "add0": {
        "0": {
          "write": "O",
          "R": "back0"
        },
        " ": {
          "write": "O",
          "R": "back0"
        },
        "1": {
          "write": "I",
          "R": "back0"
        },
        "O": "L",
        "I": "L"
      },
      "add1": {
        "0": {
          "write": "I",
          "R": "back1"
        },
        " ": {
          "write": "I",
          "R": "back1"
        },
        "1": {
          "write": "O",
          "L": "carry"
        },
        "O": "L",
        "I": "L"
      },
      "carry": {
        "0": {
          "write": "1",
          "R": "back1"
        },
        " ": {
          "write": "1",
          "R": "back1"
        },
        "1": {
          "write": "0",
          "L": "carry"
        }
      },
      "back0": {
        "0": "R",
        "1": "R",
        "O": "R",
        "I": "R",
        "+": "R",
        "c": {
          "write": "0",
          "L": "read"
        }
      },
      "back1": {
        "0": "R",
        "1": "R",
        "O": "R",
        "I": "R",
        "+": "R",
        "c": {
          "write": "1",
          "L": "read"
        }
      },
      "rewrite": {
        "O": {
          "write": "0",
          "L": "rewrite"
        },
        "I": {
          "write": "1",
          "L": "rewrite"
        },
        "0": "L",
        "1": "L",
        " ": {
          "R": "double"
        }
      }
    }
  },
  "input": "11*101",
  "output": "1111",
  "execution_history": [
    {
      "current_state": "start",
      "current_symbol": "1",
      "head_position": 0,
      "tape_content": "11*101",
      "transition": {
        "L": "init"
      }
    },
    {
      "current_state": "init",
      "current_symbol": " ",
      "head_position": 0,
      "tape_content": " 11*101",
      "transition": {
        "write": "+",
        "R": "right"
      }
    },
    {
      "current_state": "right",
      "current_symbol": "1",
      "head_position": 1,
      "tape_content": "+11*101",
      "transition": "R"
    },
    {
      "current_state": "right",
      "current_symbol": "1",
      "head_position": 2,
      "tape_content": "+11*101",
      "transition": "R"
    },
    {
      "current_state": "right",
      "current_symbol": "*",
      "head_position": 3,
      "tape_content": "+11*101",
      "transition": "R"
    },
    {
      "current_state": "right",
      "current_symbol": "1",
      "head_position": 4,
      "tape_content": "+11*101",
      "transition": "R"
    },
    {
      "current_state": "right",
      "current_symbol": "0",
      "head_position": 5,
      "tape_content": "+11*101",
      "transition": "R"
    },
    {
      "current_state": "right",
      "current_symbol": "1",
      "head_position": 6,
      "tape_content": "+11*101",
      "transition": "R"
    },
    {
      "current_state": "right",
      "current_symbol": " ",
      "head_position": 7,
      "tape_content": "+11*101 ",
      "transition": {
        "L": "readB"
      }
    },
    {
      "current_state": "readB",
      "current_symbol": "1",
      "head_position": 6,
      "tape_content": "+11*101 ",
      "transition": {
        "write": " ",
        "L": "addA"
      }
    },
    {
      "current_state": "addA",
      "current_symbol": "0",
      "head_position": 5,
      "tape_content": "+11*10  ",
      "transition": "L"
    },
    {
      "current_state": "addA",
      "current_symbol": "1",
      "head_position": 4,
      "tape_content": "+11*10  ",
      "transition": "L"
    },
    {
      "current_state": "addA",
      "current_symbol": "*",
      "head_position": 3,
      "tape_content": "+11*10  ",
      "transition": {
        "L": "read"
      }
    },
    {
      "current_state": "read",
      "current_symbol": "1",
      "head_position": 2,
      "tape_content": "+11*10  ",
      "transition": {
        "write": "c",
        "L": "have1"
      }
    },
    {
      "current_state": "have1",
      "current_symbol": "1",
      "head_position": 1,
      "tape_content": "+1c*10  ",
      "transition": "L"
    },
    {
      "current_state": "have1",
      "current_symbol": "+",
      "head_position": 0,
      "tape_content": "+1c*10  ",
      "transition": {
        "L": "add1"
      }
    },
    {
      "current_state": "add1",
      "current_symbol": " ",
      "head_position": 0,
      "tape_content": " +1c*10  ",
      "transition": {
        "write": "I",
        "R": "back1"
      }
    },
    {
      "current_state": "back1",
      "current_symbol": "+",
      "head_position": 1,
      "tape_content": "I+1c*10  ",
      "transition": "R"
    },
    {
      "current_state": "back1",
      "current_symbol": "1",
      "head_position": 2,
      "tape_content": "I+1c*10  ",
      "transition": "R"
    },
    {
      "current_state": "back1",
      "current_symbol": "c",
      "head_position": 3,
      "tape_content": "I+1c*10  ",
      "transition": {
        "write": "1",
        "L": "read"
      }
    },
    {
      "current_state": "read",
      "current_symbol": "1",
      "head_position": 2,
      "tape_content": "I+11*10  ",
      "transition": {
        "write": "c",
        "L": "have1"
      }
    },
    {
      "current_state": "have1",
      "current_symbol": "+",
      "head_position": 1,
      "tape_content": "I+c1*10  ",
      "transition": {
        "L": "add1"
      }
    },
    {
      "current_state": "add1",
      "current_symbol": "I",
      "head_position": 0,
      "tape_content": "I+c1*10  ",
      "transition": "L"
    },
    {
      "current_state": "add1",
      "current_symbol": " ",
      "head_position": 0,
      "tape_content": " I+c1*10  ",
      "transition": {
        "write": "I",
        "R": "back1"
      }
    },
    {
      "current_state": "back1",
      "current_symbol": "I",
      "head_position": 1,
      "tape_content": "II+c1*10  ",
      "transition": "R"
    },
    {
      "current_state": "back1",
      "current_symbol": "+",
      "head_position": 2,
      "tape_content": "II+c1*10  ",
      "transition": "R"
    },
    {
      "current_state": "back1",
      "current_symbol": "c",
      "head_position": 3,
      "tape_content": "II+c1*10  ",
      "transition": {
        "write": "1",
        "L": "read"
      }
    },
    {
      "current_state": "read",
      "current_symbol": "+",
      "head_position": 2,
      "tape_content": "II+11*10  ",
      "transition": {
        "L": "rewrite"
      }
    },
    {
      "current_state": "rewrite",
      "current_symbol": "I",
      "head_position": 1,
      "tape_content": "II+11*10  ",
      "transition": {
        "write": "1",
        "L": "rewrite"
      }
    },
    {
      "current_state": "rewrite",
      "current_symbol": "I",
      "head_position": 0,
      "tape_content": "I1+11*10  ",
      "transition": {
        "write": "1",
        "L": "rewrite"
      }
    },
    {
      "current_state": "rewrite",
      "current_symbol": " ",
      "head_position": 0,
      "tape_content": " 11+11*10  ",
      "transition": {
        "R": "double"
      }
    },
    {
      "current_state": "double",
      "current_symbol": "1",
      "head_position": 1,
      "tape_content": " 11+11*10  ",
      "transition": "R"
    },
    {
      "current_state": "double",
      "current_symbol": "1",
      "head_position": 2,
      "tape_content": " 11+11*10  ",
      "transition": "R"
    },
    {
      "current_state": "double",
      "current_symbol": "+",
      "head_position": 3,
      "tape_content": " 11+11*10  ",
      "transition": "R"
    },
    {
      "current_state": "double",
      "current_symbol": "1",
      "head_position": 4,
      "tape_content": " 11+11*10  ",
      "transition": "R"
    },
    {
      "current_state": "double",
      "current_symbol": "1",
      "head_position": 5,
      "tape_content": " 11+11*10  ",
      "transition": "R"
    },
    {
      "current_state": "double",
      "current_symbol": "*",
      "head_position": 6,
      "tape_content": " 11+11*10  ",
      "transition": {
        "write": "0",
        "R": "shift"
      }
    },
    {
      "current_state": "shift",
      "current_symbol": "1",
      "head_position": 7,
      "tape_content": " 11+11010  ",
      "transition": {
        "write": "*",
        "R": "shift1"
      }
    },
    {
      "current_state": "shift1",
      "current_symbol": "0",
      "head_position": 8,
      "tape_content": " 11+110*0  ",
      "transition": {
        "write": "1",
        "R": "shift0"
      }
    },
    {
      "current_state": "shift0",
      "current_symbol": " ",
      "head_position": 9,
      "tape_content": " 11+110*1  ",
      "transition": {
        "write": "0",
        "R": "right"
      }
    },
    {
      "current_state": "right",
      "current_symbol": " ",
      "head_position": 10,
      "tape_content": " 11+110*10 ",
      "transition": {
        "L": "readB"
      }
    },
    {
      "current_state": "readB",
      "current_symbol": "0",
      "head_position": 9,
      "tape_content": " 11+110*10 ",
      "transition": {
        "write": " ",
        "L": "doubleL"
      }
    },
    {
      "current_state": "doubleL",
      "current_symbol": "1",
      "head_position": 8,
      "tape_content": " 11+110*1  ",
      "transition": "L"
    },
    {
      "current_state": "doubleL",
      "current_symbol": "*",
      "head_position": 7,
      "tape_content": " 11+110*1  ",
      "transition": {
        "write": "0",
        "R": "shift"
      }
    },
    {
      "current_state": "shift",
      "current_symbol": "1",
      "head_position": 8,
      "tape_content": " 11+11001  ",
      "transition": {
        "write": "*",
        "R": "shift1"
      }
    },
    {
      "current_state": "shift1",
      "current_symbol": " ",
      "head_position": 9,
      "tape_content": " 11+1100*  ",
      "transition": {
        "write": "1",
        "R": "right"
      }
    },
    {
      "current_state": "right",
      "current_symbol": " ",
      "head_position": 10,
      "tape_content": " 11+1100*1 ",
      "transition": {
        "L": "readB"
      }
    },
    {
      "current_state": "readB",
      "current_symbol": "1",
      "head_position": 9,
      "tape_content": " 11+1100*1 ",
      "transition": {
        "write": " ",
        "L": "addA"
      }
    },
    {
      "current_state": "addA",
      "current_symbol": "*",
      "head_position": 8,
      "tape_content": " 11+1100*  ",
      "transition": {
        "L": "read"
      }
    },
    {
      "current_state": "read",
      "current_symbol": "0",
      "head_position": 7,
      "tape_content": " 11+1100*  ",
      "transition": {
        "write": "c",
        "L": "have0"
      }
    },
    {
      "current_state": "have0",
      "current_symbol": "0",
      "head_position": 6,
      "tape_content": " 11+110c*  ",
      "transition": "L"
    },
    {
      "current_state": "have0",
      "current_symbol": "1",
      "head_position": 5,
      "tape_content": " 11+110c*  ",
      "transition": "L"
    },
    {
      "current_state": "have0",
      "current_symbol": "1",
      "head_position": 4,
      "tape_content": " 11+110c*  ",
      "transition": "L"
    },
    {
      "current_state": "have0",
      "current_symbol": "+",
      "head_position": 3,
      "tape_content": " 11+110c*  ",
      "transition": {
        "L": "add0"
      }
    },
    {
      "current_state": "add0",
      "current_symbol": "1",
      "head_position": 2,
      "tape_content": " 11+110c*  ",
      "transition": {
        "write": "I",
        "R": "back0"
      }
    },
    {
      "current_state": "back0",
      "current_symbol": "+",
      "head_position": 3,
      "tape_content": " 1I+110c*  ",
      "transition": "R"
    },
    {
      "current_state": "back0",
      "current_symbol": "1",
      "head_position": 4,
      "tape_content": " 1I+110c*  ",
      "transition": "R"
    },
    {
      "current_state": "back0",
      "current_symbol": "1",
      "head_position": 5,
      "tape_content": " 1I+110c*  ",
      "transition": "R"
    },
    {
      "current_state": "back0",
      "current_symbol": "0",
      "head_position": 6,
      "tape_content": " 1I+110c*  ",
      "transition": "R"
    },
    {
      "current_state": "back0",
      "current_symbol": "c",
      "head_position": 7,
      "tape_content": " 1I+110c*  ",
      "transition": {
        "write": "0",
        "L": "read"
      }
    },
    {
      "current_state": "read",
      "current_symbol": "0",
      "head_position": 6,
      "tape_content": " 1I+1100*  ",
      "transition": {
        "write": "c",
        "L": "have0"
      }
    },
    {
      "current_state": "have0",
      "current_symbol": "1",
      "head_position": 5,
      "tape_content": " 1I+11c0*  ",
      "transition": "L"
    },
    {
      "current_state": "have0",
      "current_symbol": "1",
      "head_position": 4,
      "tape_content": " 1I+11c0*  ",
      "transition": "L"
    },
    {
      "current_state": "have0",
      "current_symbol": "+",
      "head_position": 3,
      "tape_content": " 1I+11c0*  ",
      "transition": {
        "L": "add0"
      }
    },
    {
      "current_state": "add0",
      "current_symbol": "I",
      "head_position": 2,
      "tape_content": " 1I+11c0*  ",
      "transition": "L"
    },
    {
      "current_state": "add0",
      "current_symbol": "1",
      "head_position": 1,
      "tape_content": " 1I+11c0*  ",
      "transition": {
        "write": "I",
        "R": "back0"
      }
    },
    {
      "current_state": "back0",
      "current_symbol": "I",
      "head_position": 2,
      "tape_content": " II+11c0*  ",
      "transition": "R"
    },
    {
      "current_state": "back0",
      "current_symbol": "+",
      "head_position": 3,
      "tape_content": " II+11c0*  ",
      "transition": "R"
    },
    {
      "current_state": "back0",
      "current_symbol": "1",
      "head_position": 4,
      "tape_content": " II+11c0*  ",
      "transition": "R"
    },
    {
      "current_state": "back0",
      "current_symbol": "1",
      "head_position": 5,
      "tape_content": " II+11c0*  ",
      "transition": "R"
    },
    {
      "current_state": "back0",
      "current_symbol": "c",
      "head_position": 6,
      "tape_content": " II+11c0*  ",
      "transition": {
        "write": "0",
        "L": "read"
      }
    },
    {
      "current_state": "read",
      "current_symbol": "1",
      "head_position": 5,
      "tape_content": " II+1100*  ",
      "transition": {
        "write": "c",
        "L": "have1"
      }
    },
    {
      "current_state": "have1",
      "current_symbol": "1",
      "head_position": 4,
      "tape_content": " II+1c00*  ",
      "transition": "L"
    },
    {
      "current_state": "have1",
      "current_symbol": "+",
      "head_position": 3,
      "tape_content": " II+1c00*  ",
      "transition": {
        "L": "add1"
      }
    },
    {
      "current_state": "add1",
      "current_symbol": "I",
      "head_position": 2,
      "tape_content": " II+1c00*  ",
      "transition": "L"
    },
    {
      "current_state": "add1",
      "current_symbol": "I",
      "head_position": 1,
      "tape_content": " II+1c00*  ",
      "transition": "L"
    },
    {
      "current_state": "add1",
      "current_symbol": " ",
      "head_position": 0,
      "tape_content": " II+1c00*  ",
      "transition": {
        "write": "I",
        "R": "back1"
      }
    },
    {
      "current_state": "back1",
      "current_symbol": "I",
      "head_position": 1,
      "tape_content": "III+1c00*  ",
      "transition": "R"
    },
    {
      "current_state": "back1",
      "current_symbol": "I",
      "head_position": 2,
      "tape_content": "III+1c00*  ",
      "transition": "R"
    },
    {
      "current_state": "back1",
      "current_symbol": "+",
      "head_position": 3,
      "tape_content": "III+1c00*  ",
      "transition": "R"
    },
    {
      "current_state": "back1",
      "current_symbol": "1",
      "head_position": 4,
      "tape_content": "III+1c00*  ",
      "transition": "R"
    },
    {
      "current_state": "back1",
      "current_symbol": "c",
      "head_position": 5,
      "tape_content": "III+1c00*  ",
      "transition": {
        "write": "1",
        "L": "read"
      }
    },
    {
      "current_state": "read",
      "current_symbol": "1",
      "head_position": 4,
      "tape_content": "III+1100*  ",
      "transition": {
        "write": "c",
        "L": "have1"
      }
    },
    {
      "current_state": "have1",
      "current_symbol": "+",
      "head_position": 3,
      "tape_content": "III+c100*  ",
      "transition": {
        "L": "add1"
      }
    },
    {
      "current_state": "add1",
      "current_symbol": "I",
      "head_position": 2,
      "tape_content": "III+c100*  ",
      "transition": "L"
    },
    {
      "current_state": "add1",
      "current_symbol": "I",
      "head_position": 1,
      "tape_content": "III+c100*  ",
      "transition": "L"
    },
    {
      "current_state": "add1",
      "current_symbol": "I",
      "head_position": 0,
      "tape_content": "III+c100*  ",
      "transition": "L"
    },
    {
      "current_state": "add1",
      "current_symbol": " ",
      "head_position": 0,
      "tape_content": " III+c100*  ",
      "transition": {
        "write": "I",
        "R": "back1"
      }
    },
    {
      "current_state": "back1",
      "current_symbol": "I",
      "head_position": 1,
      "tape_content": "IIII+c100*  ",
      "transition": "R"
    },
    {
      "current_state": "back1",
      "current_symbol": "I",
      "head_position": 2,
      "tape_content": "IIII+c100*  ",
      "transition": "R"
    },
    {
      "current_state": "back1",
      "current_symbol": "I",
      "head_position": 3,
      "tape_content": "IIII+c100*  ",
      "transition": "R"
    },
    {
      "current_state": "back1",
      "current_symbol": "+",
      "head_position": 4,
      "tape_content": "IIII+c100*  ",
      "transition": "R"
    },
    {
      "current_state": "back1",
      "current_symbol": "c",
      "head_position": 5,
      "tape_content": "IIII+c100*  ",
      "transition": {
        "write": "1",
        "L": "read"
      }
    },
    {
      "current_state": "read",
      "current_symbol": "+",
      "head_position": 4,
      "tape_content": "IIII+1100*  ",
      "transition": {
        "L": "rewrite"
      }
    },
    {
      "current_state": "rewrite",
      "current_symbol": "I",
      "head_position": 3,
      "tape_content": "IIII+1100*  ",
      "transition": {
        "write": "1",
        "L": "rewrite"
      }
    },
    {
      "current_state": "rewrite",
      "current_symbol": "I",
      "head_position": 2,
      "tape_content": "III1+1100*  ",
      "transition": {
        "write": "1",
        "L": "rewrite"
      }
    },
    {
      "current_state": "rewrite",
      "current_symbol": "I",
      "head_position": 1,
      "tape_content": "II11+1100*  ",
      "transition": {
        "write": "1",
        "L": "rewrite"
      }
    },
    {
      "current_state": "rewrite",
      "current_symbol": "I",
      "head_position": 0,
      "tape_content": "I111+1100*  ",
      "transition": {
        "write": "1",
        "L": "rewrite"
      }
    },
    {
      "current_state": "rewrite",
      "current_symbol": " ",
      "head_position": 0,
      "tape_content": " 1111+1100*  ",
      "transition": {
        "R": "double"
      }
    },
    {
      "current_state": "double",
      "current_symbol": "1",
      "head_position": 1,
      "tape_content": " 1111+1100*  ",
      "transition": "R"
    },
    {
      "current_state": "double",
      "current_symbol": "1",
      "head_position": 2,
      "tape_content": " 1111+1100*  ",
      "transition": "R"
    },
    {
      "current_state": "double",
      "current_symbol": "1",
      "head_position": 3,
      "tape_content": " 1111+1100*  ",
      "transition": "R"
    },
    {
      "current_state": "double",
      "current_symbol": "1",
      "head_position": 4,
      "tape_content": " 1111+1100*  ",
      "transition": "R"
    },
    {
      "current_state": "double",
      "current_symbol": "+",
      "head_position": 5,
      "tape_content": " 1111+1100*  ",
      "transition": "R"
    },
    {
      "current_state": "double",
      "current_symbol": "1",
      "head_position": 6,
      "tape_content": " 1111+1100*  ",
      "transition": "R"
    },
    {
      "current_state": "double",
      "current_symbol": "1",
      "head_position": 7,
      "tape_content": " 1111+1100*  ",
      "transition": "R"
    },
    {
      "current_state": "double",
      "current_symbol": "0",
      "head_position": 8,
      "tape_content": " 1111+1100*  ",
      "transition": "R"
    },
    {
      "current_state": "double",
      "current_symbol": "0",
      "head_position": 9,
      "tape_content": " 1111+1100*  ",
      "transition": "R"
    },
    {
      "current_state": "double",
      "current_symbol": "*",
      "head_position": 10,
      "tape_content": " 1111+1100*  ",
      "transition": {
        "write": "0",
        "R": "shift"
      }
    },
    {
      "current_state": "shift",
      "current_symbol": " ",
      "head_position": 11,
      "tape_content": " 1111+11000  ",
      "transition": {
        "L": "tidy"
      }
    },
    {
      "current_state": "tidy",
      "current_symbol": "0",
      "head_position": 10,
      "tape_content": " 1111+11000  ",
      "transition": {
        "write": " ",
        "L": "tidy"
      }
    },
    {
      "current_state": "tidy",
      "current_symbol": "0",
      "head_position": 9,
      "tape_content": " 1111+1100   ",
      "transition": {
        "write": " ",
        "L": "tidy"
      }
    },
    {
      "current_state": "tidy",
      "current_symbol": "0",
      "head_position": 8,
      "tape_content": " 1111+110    ",
      "transition": {
        "write": " ",
        "L": "tidy"
      }
    },
    {
      "current_state": "tidy",
      "current_symbol": "1",
      "head_position": 7,
      "tape_content": " 1111+11     ",
      "transition": {
        "write": " ",
        "L": "tidy"
      }
    },
    {
      "current_state": "tidy",
      "current_symbol": "1",
      "head_position": 6,
      "tape_content": " 1111+1      ",
      "transition": {
        "write": " ",
        "L": "tidy"
      }
    },
    {
      "current_state": "tidy",
      "current_symbol": "+",
      "head_position": 5,
      "tape_content": " 1111+       ",
      "transition": {
        "write": " ",
        "L": "done"
      }
    }
  ]
}
