{
  "machine": {
    "blank": "0",
    "start state": "e1",
    "final states": [
      "done"
    ],
    "table": {
      "e1": {
        "0": {
          "L": "done"
        },
        "1": {
          "write": "0",
          "R": "e2"
        }
      },
      "e2": {
        "1": {
          "write": "1",
          "R": "e2"
        },
        "0": {
          "write": "0",
          "R": "e3"
        }
      },
      "e3": {
        "1": {
          "write": "1",
          "R": "e3"
        },
        "0": {
          "write": "1",
          "L": "e4"
        }
      },
      "e4": {
        "1": {
          "write": "1",
          "L": "e4"
        },
        "0": {
          "write": "0",
          "L": "e5"
        }
      },
      "e5": {
        "1": {
          "write": "1",
          "L": "e5"
        },
        "0": {
          "write": "1",
          "R": "e1"
        }
      },
      "done": {}
    }
  },
  "input": "1",
  "output": "101",
  "execution_history": [
    {
      "current_state": "e1",
      "current_symbol": "1",
      "head_position": 0,
      "tape_content": "1",
      "transition": {
        "write": "0",
        "R": "e2"
      }
    },
    {
      "current_state": "e2",
      "current_symbol": "0",
      "head_position": 1,
      "tape_content": "00",
      "transition": {
        "write": "0",
        "R": "e3"
      }
    },
    {
      "current_state": "e3",
      "current_symbol": "0",
      "head_position": 2,
      "tape_content": "000",
      "transition": {
        "write": "1",
        "L": "e4"
      }
    },
    {
      "current_state": "e4",
      "current_symbol": "0",
      "head_position": 1,
      "tape_content": "001",
      "transition": {
        "write": "0",
        "L": "e5"
      }
    },
    {
      "current_state": "e5",
      "current_symbol": "0",
      "head_position": 0,
      "tape_content": "001",
      "transition": {
        "write": "1",
        "R": "e1"
      }
    },
    {
      "current_state": "e1",
      "current_symbol": "0",
      "head_position": 1,
      "tape_content": "101",
      "transition": {
        "L": "done"
      }
    }
  ]
}
